<svg xmlns="http://www.w3.org/2000/svg" xmlns:xlink="http://www.w3.org/1999/xlink" width="257" height="119" viewBox="0 0 257 119">
  <defs>
    <clipPath id="clip-path">
      <rect id="Прямоугольник_314" data-name="Прямоугольник 314" width="257" height="119" transform="translate(684.646 369.273)" fill="#fff"/>
    </clipPath>
    <clipPath id="clip-path-2">
      <rect id="Прямоугольник_213" data-name="Прямоугольник 213" width="289.485" height="119.09" fill="none"/>
    </clipPath>
  </defs>
  <g id="Группа_масок_18" data-name="Группа масок 18" transform="translate(-684.646 -369.273)" clip-path="url(#clip-path)">
    <g id="Сгруппировать_1134" data-name="Сгруппировать 1134" transform="translate(-5.41 -2.226)">
      <g id="Сгруппировать_1133" data-name="Сгруппировать 1133" transform="translate(657.482 371.727)" clip-path="url(#clip-path-2)">
        <line id="Линия_110" data-name="Линия 110" x1="669.861" y1="729.344" transform="translate(-345.452 108.721)" fill="none" stroke="#c6c6c5" stroke-miterlimit="10" stroke-width="0.983"/>
        <line id="Линия_111" data-name="Линия 111" x1="669.861" y1="729.344" transform="translate(-345.452 97.215)" fill="none" stroke="#c6c6c5" stroke-miterlimit="10" stroke-width="0.983"/>
        <line id="Линия_112" data-name="Линия 112" x1="669.861" y1="729.344" transform="translate(-345.452 85.708)" fill="none" stroke="#c6c6c5" stroke-miterlimit="10" stroke-width="0.983"/>
        <line id="Линия_113" data-name="Линия 113" x1="669.861" y1="729.34" transform="translate(-345.452 74.207)" fill="none" stroke="#c6c6c5" stroke-miterlimit="10" stroke-width="0.983"/>
        <line id="Линия_114" data-name="Линия 114" x1="669.861" y1="729.34" transform="translate(-345.452 62.7)" fill="none" stroke="#c6c6c5" stroke-miterlimit="10" stroke-width="0.983"/>
        <line id="Линия_115" data-name="Линия 115" x1="669.861" y1="729.344" transform="translate(-345.452 51.194)" fill="none" stroke="#c6c6c5" stroke-miterlimit="10" stroke-width="0.983"/>
        <line id="Линия_116" data-name="Линия 116" x1="669.861" y1="729.344" transform="translate(-345.452 39.688)" fill="none" stroke="#c6c6c5" stroke-miterlimit="10" stroke-width="0.983"/>
        <line id="Линия_117" data-name="Линия 117" x1="669.861" y1="729.344" transform="translate(-345.452 28.181)" fill="none" stroke="#c6c6c5" stroke-miterlimit="10" stroke-width="0.983"/>
        <line id="Линия_118" data-name="Линия 118" x1="669.861" y1="729.344" transform="translate(-345.452 16.675)" fill="none" stroke="#c6c6c5" stroke-miterlimit="10" stroke-width="0.983"/>
        <line id="Линия_119" data-name="Линия 119" x1="669.861" y1="729.344" transform="translate(-345.452 5.169)" fill="none" stroke="#c6c6c5" stroke-miterlimit="10" stroke-width="0.983"/>
        <line id="Линия_120" data-name="Линия 120" x1="669.861" y1="729.344" transform="translate(-345.452 -6.337)" fill="none" stroke="#c6c6c5" stroke-miterlimit="10" stroke-width="0.983"/>
        <line id="Линия_121" data-name="Линия 121" x1="669.861" y1="729.34" transform="translate(-345.452 -17.839)" fill="none" stroke="#c6c6c5" stroke-miterlimit="10" stroke-width="0.983"/>
        <line id="Линия_122" data-name="Линия 122" x1="669.861" y1="729.344" transform="translate(-345.452 -29.345)" fill="none" stroke="#c6c6c5" stroke-miterlimit="10" stroke-width="0.983"/>
        <line id="Линия_123" data-name="Линия 123" x1="669.861" y1="729.344" transform="translate(-345.452 -40.852)" fill="none" stroke="#c6c6c5" stroke-miterlimit="10" stroke-width="0.983"/>
        <line id="Линия_124" data-name="Линия 124" x1="669.861" y1="729.344" transform="translate(-345.452 -52.358)" fill="none" stroke="#c6c6c5" stroke-miterlimit="10" stroke-width="0.983"/>
        <line id="Линия_125" data-name="Линия 125" x1="669.861" y1="729.344" transform="translate(-345.452 -63.864)" fill="none" stroke="#c6c6c5" stroke-miterlimit="10" stroke-width="0.983"/>
        <line id="Линия_126" data-name="Линия 126" x1="669.861" y1="729.344" transform="translate(-345.452 -75.371)" fill="none" stroke="#c6c6c5" stroke-miterlimit="10" stroke-width="0.983"/>
        <line id="Линия_127" data-name="Линия 127" x1="669.861" y1="729.344" transform="translate(-345.452 -86.877)" fill="none" stroke="#c6c6c5" stroke-miterlimit="10" stroke-width="0.983"/>
        <line id="Линия_128" data-name="Линия 128" x1="669.861" y1="729.344" transform="translate(-345.452 -98.384)" fill="none" stroke="#c6c6c5" stroke-miterlimit="10" stroke-width="0.983"/>
        <line id="Линия_129" data-name="Линия 129" x1="669.861" y1="729.34" transform="translate(-345.452 -109.885)" fill="none" stroke="#c6c6c5" stroke-miterlimit="10" stroke-width="0.983"/>
        <line id="Линия_130" data-name="Линия 130" x1="669.861" y1="729.344" transform="translate(-345.452 -121.391)" fill="none" stroke="#c6c6c5" stroke-miterlimit="10" stroke-width="0.983"/>
        <line id="Линия_131" data-name="Линия 131" x1="669.861" y1="729.344" transform="translate(-345.452 -132.898)" fill="none" stroke="#c6c6c5" stroke-miterlimit="10" stroke-width="0.983"/>
        <line id="Линия_132" data-name="Линия 132" x1="669.861" y1="729.344" transform="translate(-345.452 -144.404)" fill="none" stroke="#c6c6c5" stroke-miterlimit="10" stroke-width="0.983"/>
        <line id="Линия_133" data-name="Линия 133" x1="669.861" y1="729.344" transform="translate(-345.452 -155.91)" fill="none" stroke="#c6c6c5" stroke-miterlimit="10" stroke-width="0.983"/>
        <line id="Линия_134" data-name="Линия 134" x1="669.861" y1="729.344" transform="translate(-345.452 -167.417)" fill="none" stroke="#c6c6c5" stroke-miterlimit="10" stroke-width="0.983"/>
        <line id="Линия_135" data-name="Линия 135" x1="669.861" y1="729.344" transform="translate(-345.452 -178.923)" fill="none" stroke="#c6c6c5" stroke-miterlimit="10" stroke-width="0.983"/>
        <line id="Линия_136" data-name="Линия 136" x1="669.861" y1="729.34" transform="translate(-345.452 -190.424)" fill="none" stroke="#c6c6c5" stroke-miterlimit="10" stroke-width="0.983"/>
        <line id="Линия_137" data-name="Линия 137" x1="669.861" y1="729.34" transform="translate(-345.452 -201.931)" fill="none" stroke="#c6c6c5" stroke-miterlimit="10" stroke-width="0.983"/>
        <line id="Линия_138" data-name="Линия 138" x1="669.861" y1="729.344" transform="translate(-345.452 -213.438)" fill="none" stroke="#c6c6c5" stroke-miterlimit="10" stroke-width="0.983"/>
        <line id="Линия_139" data-name="Линия 139" x1="669.861" y1="729.344" transform="translate(-345.452 -224.944)" fill="none" stroke="#c6c6c5" stroke-miterlimit="10" stroke-width="0.983"/>
        <line id="Линия_140" data-name="Линия 140" x1="669.861" y1="729.344" transform="translate(-345.452 -236.45)" fill="none" stroke="#c6c6c5" stroke-miterlimit="10" stroke-width="0.983"/>
        <line id="Линия_141" data-name="Линия 141" x1="669.861" y1="729.344" transform="translate(-345.452 -247.956)" fill="none" stroke="#c6c6c5" stroke-miterlimit="10" stroke-width="0.983"/>
        <line id="Линия_142" data-name="Линия 142" x1="669.861" y1="729.344" transform="translate(-345.452 -259.463)" fill="none" stroke="#c6c6c5" stroke-miterlimit="10" stroke-width="0.983"/>
        <line id="Линия_143" data-name="Линия 143" x1="669.861" y1="729.344" transform="translate(-345.452 -270.969)" fill="none" stroke="#c6c6c5" stroke-miterlimit="10" stroke-width="0.983"/>
        <line id="Линия_144" data-name="Линия 144" x1="669.861" y1="729.34" transform="translate(-345.452 -282.471)" fill="none" stroke="#c6c6c5" stroke-miterlimit="10" stroke-width="0.983"/>
        <line id="Линия_145" data-name="Линия 145" x1="669.861" y1="729.344" transform="translate(-345.452 -293.977)" fill="none" stroke="#c6c6c5" stroke-miterlimit="10" stroke-width="0.983"/>
        <line id="Линия_146" data-name="Линия 146" x1="669.861" y1="729.344" transform="translate(-345.452 -305.483)" fill="none" stroke="#c6c6c5" stroke-miterlimit="10" stroke-width="0.983"/>
        <line id="Линия_147" data-name="Линия 147" x1="669.861" y1="729.344" transform="translate(-345.452 -316.99)" fill="none" stroke="#c6c6c5" stroke-miterlimit="10" stroke-width="0.983"/>
        <line id="Линия_148" data-name="Линия 148" x1="669.861" y1="729.344" transform="translate(-345.452 -328.496)" fill="none" stroke="#c6c6c5" stroke-miterlimit="10" stroke-width="0.983"/>
        <line id="Линия_149" data-name="Линия 149" x1="669.861" y1="729.344" transform="translate(-345.452 -340.002)" fill="none" stroke="#c6c6c5" stroke-miterlimit="10" stroke-width="0.983"/>
        <line id="Линия_150" data-name="Линия 150" x1="669.861" y1="729.344" transform="translate(-345.452 -351.509)" fill="none" stroke="#c6c6c5" stroke-miterlimit="10" stroke-width="0.983"/>
        <line id="Линия_151" data-name="Линия 151" x1="669.861" y1="729.34" transform="translate(-345.452 -363.01)" fill="none" stroke="#c6c6c5" stroke-miterlimit="10" stroke-width="0.983"/>
        <line id="Линия_152" data-name="Линия 152" x1="669.861" y1="729.34" transform="translate(-345.452 -374.517)" fill="none" stroke="#c6c6c5" stroke-miterlimit="10" stroke-width="0.983"/>
        <line id="Линия_153" data-name="Линия 153" x1="669.861" y1="729.344" transform="translate(-345.452 -386.023)" fill="none" stroke="#c6c6c5" stroke-miterlimit="10" stroke-width="0.983"/>
        <line id="Линия_154" data-name="Линия 154" x1="669.861" y1="729.344" transform="translate(-345.452 -397.529)" fill="none" stroke="#c6c6c5" stroke-miterlimit="10" stroke-width="0.983"/>
        <line id="Линия_155" data-name="Линия 155" x1="669.861" y1="729.344" transform="translate(-345.452 -409.035)" fill="none" stroke="#c6c6c5" stroke-miterlimit="10" stroke-width="0.983"/>
        <line id="Линия_156" data-name="Линия 156" x1="669.861" y1="729.344" transform="translate(-345.452 -420.542)" fill="none" stroke="#c6c6c5" stroke-miterlimit="10" stroke-width="0.983"/>
        <line id="Линия_157" data-name="Линия 157" x1="669.861" y1="729.344" transform="translate(-345.452 -432.048)" fill="none" stroke="#c6c6c5" stroke-miterlimit="10" stroke-width="0.983"/>
        <line id="Линия_158" data-name="Линия 158" x1="669.861" y1="729.344" transform="translate(-345.452 -443.554)" fill="none" stroke="#c6c6c5" stroke-miterlimit="10" stroke-width="0.983"/>
        <line id="Линия_159" data-name="Линия 159" x1="669.861" y1="729.34" transform="translate(-345.452 -455.056)" fill="none" stroke="#c6c6c5" stroke-miterlimit="10" stroke-width="0.983"/>
        <line id="Линия_160" data-name="Линия 160" x1="669.861" y1="729.344" transform="translate(-345.452 -466.562)" fill="none" stroke="#c6c6c5" stroke-miterlimit="10" stroke-width="0.983"/>
        <line id="Линия_161" data-name="Линия 161" x1="669.861" y1="729.344" transform="translate(-345.452 -478.069)" fill="none" stroke="#c6c6c5" stroke-miterlimit="10" stroke-width="0.983"/>
        <line id="Линия_162" data-name="Линия 162" x1="669.861" y1="729.344" transform="translate(-345.452 -489.575)" fill="none" stroke="#c6c6c5" stroke-miterlimit="10" stroke-width="0.983"/>
        <line id="Линия_163" data-name="Линия 163" x1="669.861" y1="729.344" transform="translate(-345.452 -501.081)" fill="none" stroke="#c6c6c5" stroke-miterlimit="10" stroke-width="0.983"/>
        <line id="Линия_164" data-name="Линия 164" x1="669.861" y1="729.344" transform="translate(-345.452 -512.588)" fill="none" stroke="#c6c6c5" stroke-miterlimit="10" stroke-width="0.983"/>
        <line id="Линия_165" data-name="Линия 165" x1="669.861" y1="729.344" transform="translate(-345.452 -524.094)" fill="none" stroke="#c6c6c5" stroke-miterlimit="10" stroke-width="0.983"/>
        <line id="Линия_166" data-name="Линия 166" x1="669.861" y1="729.344" transform="translate(-345.452 -535.6)" fill="none" stroke="#c6c6c5" stroke-miterlimit="10" stroke-width="0.983"/>
        <line id="Линия_167" data-name="Линия 167" x1="669.861" y1="729.34" transform="translate(-345.452 -547.102)" fill="none" stroke="#c6c6c5" stroke-miterlimit="10" stroke-width="0.983"/>
        <line id="Линия_168" data-name="Линия 168" x1="669.861" y1="729.344" transform="translate(-345.452 -558.609)" fill="none" stroke="#c6c6c5" stroke-miterlimit="10" stroke-width="0.983"/>
        <line id="Линия_169" data-name="Линия 169" x1="669.861" y1="729.344" transform="translate(-345.452 -570.115)" fill="none" stroke="#c6c6c5" stroke-miterlimit="10" stroke-width="0.983"/>
        <line id="Линия_170" data-name="Линия 170" x1="669.861" y1="729.344" transform="translate(-345.452 -581.621)" fill="none" stroke="#c6c6c5" stroke-miterlimit="10" stroke-width="0.983"/>
        <line id="Линия_171" data-name="Линия 171" x1="669.861" y1="729.344" transform="translate(-345.452 -593.607)" fill="none" stroke="#c6c6c5" stroke-miterlimit="10" stroke-width="0.983"/>
        <line id="Линия_172" data-name="Линия 172" x1="669.861" y1="729.344" transform="translate(-345.452 -605.114)" fill="none" stroke="#c6c6c5" stroke-miterlimit="10" stroke-width="0.983"/>
        <line id="Линия_173" data-name="Линия 173" x1="669.861" y1="729.34" transform="translate(-345.452 -616.615)" fill="none" stroke="#c6c6c5" stroke-miterlimit="10" stroke-width="0.983"/>
        <line id="Линия_174" data-name="Линия 174" x1="669.861" y1="729.344" transform="translate(-345.452 -628.122)" fill="none" stroke="#c6c6c5" stroke-miterlimit="10" stroke-width="0.983"/>
        <line id="Линия_175" data-name="Линия 175" x1="669.861" y1="729.344" transform="translate(-345.452 -639.628)" fill="none" stroke="#c6c6c5" stroke-miterlimit="10" stroke-width="0.983"/>
        <line id="Линия_176" data-name="Линия 176" x1="669.861" y1="729.344" transform="translate(-345.452 -651.134)" fill="none" stroke="#c6c6c5" stroke-miterlimit="10" stroke-width="0.983"/>
        <line id="Линия_177" data-name="Линия 177" x1="669.861" y1="729.344" transform="translate(-345.452 -662.64)" fill="none" stroke="#c6c6c5" stroke-miterlimit="10" stroke-width="0.983"/>
        <line id="Линия_178" data-name="Линия 178" x1="669.861" y1="729.344" transform="translate(-345.452 -674.147)" fill="none" stroke="#c6c6c5" stroke-miterlimit="10" stroke-width="0.983"/>
        <line id="Линия_179" data-name="Линия 179" x1="669.861" y1="729.344" transform="translate(-345.452 -685.653)" fill="none" stroke="#c6c6c5" stroke-miterlimit="10" stroke-width="0.983"/>
        <line id="Линия_180" data-name="Линия 180" x1="669.861" y1="729.34" transform="translate(-345.452 -697.155)" fill="none" stroke="#c6c6c5" stroke-miterlimit="10" stroke-width="0.983"/>
        <line id="Линия_181" data-name="Линия 181" x1="669.861" y1="729.34" transform="translate(-345.452 -708.661)" fill="none" stroke="#c6c6c5" stroke-miterlimit="10" stroke-width="0.983"/>
        <line id="Линия_182" data-name="Линия 182" x1="669.861" y1="729.344" transform="translate(-345.452 -720.168)" fill="none" stroke="#c6c6c5" stroke-miterlimit="10" stroke-width="0.983"/>
        <line id="Линия_183" data-name="Линия 183" x1="669.861" y1="729.344" transform="translate(-345.452 -731.674)" fill="none" stroke="#c6c6c5" stroke-miterlimit="10" stroke-width="0.983"/>
        <line id="Линия_184" data-name="Линия 184" x1="669.861" y1="729.344" transform="translate(-345.452 -743.18)" fill="none" stroke="#c6c6c5" stroke-miterlimit="10" stroke-width="0.983"/>
        <line id="Линия_185" data-name="Линия 185" x1="669.861" y1="729.344" transform="translate(-345.452 -754.686)" fill="none" stroke="#c6c6c5" stroke-miterlimit="10" stroke-width="0.983"/>
        <line id="Линия_186" data-name="Линия 186" x1="669.861" y1="729.344" transform="translate(-345.452 -766.193)" fill="none" stroke="#c6c6c5" stroke-miterlimit="10" stroke-width="0.983"/>
        <line id="Линия_187" data-name="Линия 187" x1="669.861" y1="729.344" transform="translate(-345.452 -777.699)" fill="none" stroke="#c6c6c5" stroke-miterlimit="10" stroke-width="0.983"/>
        <line id="Линия_188" data-name="Линия 188" x1="669.861" y1="729.34" transform="translate(-345.452 -789.201)" fill="none" stroke="#c6c6c5" stroke-miterlimit="10" stroke-width="0.983"/>
        <line id="Линия_189" data-name="Линия 189" x1="669.861" y1="729.344" transform="translate(-345.452 -800.707)" fill="none" stroke="#c6c6c5" stroke-miterlimit="10" stroke-width="0.983"/>
        <line id="Линия_190" data-name="Линия 190" x1="669.861" y1="729.344" transform="translate(-345.452 -812.214)" fill="none" stroke="#c6c6c5" stroke-miterlimit="10" stroke-width="0.983"/>
        <line id="Линия_191" data-name="Линия 191" x1="669.861" y1="729.344" transform="translate(-345.452 -823.72)" fill="none" stroke="#c6c6c5" stroke-miterlimit="10" stroke-width="0.983"/>
        <line id="Линия_192" data-name="Линия 192" x1="669.861" y1="729.344" transform="translate(-345.452 -835.226)" fill="none" stroke="#c6c6c5" stroke-miterlimit="10" stroke-width="0.983"/>
        <line id="Линия_193" data-name="Линия 193" x1="669.861" y1="729.344" transform="translate(-345.452 -846.732)" fill="none" stroke="#c6c6c5" stroke-miterlimit="10" stroke-width="0.983"/>
        <line id="Линия_194" data-name="Линия 194" x1="669.861" y1="729.344" transform="translate(-345.452 -858.239)" fill="none" stroke="#c6c6c5" stroke-miterlimit="10" stroke-width="0.983"/>
        <line id="Линия_195" data-name="Линия 195" x1="669.861" y1="729.34" transform="translate(-345.452 -869.74)" fill="none" stroke="#c6c6c5" stroke-miterlimit="10" stroke-width="0.983"/>
        <line id="Линия_196" data-name="Линия 196" x1="669.861" y1="729.34" transform="translate(-345.452 -881.247)" fill="none" stroke="#c6c6c5" stroke-miterlimit="10" stroke-width="0.983"/>
        <line id="Линия_197" data-name="Линия 197" x1="669.861" y1="729.344" transform="translate(-345.452 -892.753)" fill="none" stroke="#c6c6c5" stroke-miterlimit="10" stroke-width="0.983"/>
        <line id="Линия_198" data-name="Линия 198" x1="669.861" y1="729.344" transform="translate(-345.452 -904.259)" fill="none" stroke="#c6c6c5" stroke-miterlimit="10" stroke-width="0.983"/>
        <line id="Линия_199" data-name="Линия 199" x1="669.861" y1="729.344" transform="translate(-345.452 -915.766)" fill="none" stroke="#c6c6c5" stroke-miterlimit="10" stroke-width="0.983"/>
        <line id="Линия_200" data-name="Линия 200" x1="669.861" y1="729.344" transform="translate(-345.452 -927.272)" fill="none" stroke="#c6c6c5" stroke-miterlimit="10" stroke-width="0.983"/>
        <line id="Линия_201" data-name="Линия 201" x1="669.861" y1="729.344" transform="translate(-345.452 -938.778)" fill="none" stroke="#c6c6c5" stroke-miterlimit="10" stroke-width="0.983"/>
        <line id="Линия_202" data-name="Линия 202" x1="669.861" y1="729.344" transform="translate(-345.452 -950.285)" fill="none" stroke="#c6c6c5" stroke-miterlimit="10" stroke-width="0.983"/>
        <line id="Линия_203" data-name="Линия 203" x1="669.861" y1="729.34" transform="translate(-345.452 -961.786)" fill="none" stroke="#c6c6c5" stroke-miterlimit="10" stroke-width="0.983"/>
        <line id="Линия_204" data-name="Линия 204" x1="669.861" y1="729.344" transform="translate(-345.452 -973.293)" fill="none" stroke="#c6c6c5" stroke-miterlimit="10" stroke-width="0.983"/>
        <line id="Линия_205" data-name="Линия 205" x1="669.861" y1="729.344" transform="translate(-345.452 -984.799)" fill="none" stroke="#c6c6c5" stroke-miterlimit="10" stroke-width="0.983"/>
        <line id="Линия_206" data-name="Линия 206" x1="669.861" y1="729.344" transform="translate(-345.452 -996.305)" fill="none" stroke="#c6c6c5" stroke-miterlimit="10" stroke-width="0.983"/>
        <line id="Линия_207" data-name="Линия 207" x1="669.861" y1="729.344" transform="translate(-345.452 -1007.811)" fill="none" stroke="#c6c6c5" stroke-miterlimit="10" stroke-width="0.983"/>
        <line id="Линия_208" data-name="Линия 208" x1="669.861" y1="729.344" transform="translate(-345.452 -1019.318)" fill="none" stroke="#c6c6c5" stroke-miterlimit="10" stroke-width="0.983"/>
        <line id="Линия_209" data-name="Линия 209" x1="669.861" y1="729.344" transform="translate(-345.452 -1030.824)" fill="none" stroke="#c6c6c5" stroke-miterlimit="10" stroke-width="0.983"/>
        <line id="Линия_210" data-name="Линия 210" x1="669.861" y1="729.344" transform="translate(-345.452 -1042.33)" fill="none" stroke="#c6c6c5" stroke-miterlimit="10" stroke-width="0.983"/>
        <line id="Линия_211" data-name="Линия 211" x1="669.861" y1="729.34" transform="translate(-345.452 -1053.832)" fill="none" stroke="#c6c6c5" stroke-miterlimit="10" stroke-width="0.983"/>
        <line id="Линия_212" data-name="Линия 212" x1="669.861" y1="729.344" transform="translate(-345.452 -1065.339)" fill="none" stroke="#c6c6c5" stroke-miterlimit="10" stroke-width="0.983"/>
        <line id="Линия_213" data-name="Линия 213" x1="669.861" y1="729.344" transform="translate(-345.452 -1076.845)" fill="none" stroke="#c6c6c5" stroke-miterlimit="10" stroke-width="0.983"/>
        <line id="Линия_214" data-name="Линия 214" x1="669.861" y1="729.344" transform="translate(-345.451 -1088.351)" fill="none" stroke="#c6c6c5" stroke-miterlimit="10" stroke-width="0.983"/>
        <line id="Линия_215" data-name="Линия 215" x1="669.861" y1="729.344" transform="translate(-345.451 -1099.857)" fill="none" stroke="#c6c6c5" stroke-miterlimit="10" stroke-width="0.983"/>
        <line id="Линия_216" data-name="Линия 216" x1="669.861" y1="729.344" transform="translate(-345.451 -1111.364)" fill="none" stroke="#c6c6c5" stroke-miterlimit="10" stroke-width="0.983"/>
        <line id="Линия_217" data-name="Линия 217" x1="669.861" y1="729.344" transform="translate(-345.451 -1122.87)" fill="none" stroke="#c6c6c5" stroke-miterlimit="10" stroke-width="0.983"/>
      </g>
    </g>
  </g>
</svg>
