<svg xmlns="http://www.w3.org/2000/svg" width="14" height="16" viewBox="0 0 17 21">
    <g fill="#000" fill-rule="evenodd">
        <path d="M12.103 16.625a.887.887 0 0 0-.896.875v1.75H1.793V1.75h9.414V3.5c0 .486.401.875.896.875S13 3.985 13 3.5V.875A.887.887 0 0 0 12.103 0H.897A.887.887 0 0 0 0 .875v19.25c0 .486.401.875.897.875h11.206c.495 0 .897-.39.897-.875V17.5a.887.887 0 0 0-.897-.875"/>
        <path d="M16.954 11.245l.003-.009A.699.699 0 0 0 17 11a.699.699 0 0 0-.043-.237l-.003-.009a.68.68 0 0 0-.13-.211l-3.111-3.354a.574.574 0 0 0-.849 0 .682.682 0 0 0 0 .914l2.088 2.25H7.6c-.332 0-.6.29-.6.647 0 .358.268.647.6.647h7.352l-2.088 2.25a.682.682 0 0 0 0 .914c.118.125.271.19.425.19a.582.582 0 0 0 .424-.19l3.111-3.354c.056-.06.1-.13.13-.211"/>
    </g>
</svg>
