<?xml version="1.0" encoding="utf-8"?>
<!-- Generator: Adobe Illustrator 24.3.0, SVG Export Plug-In . SVG Version: 6.00 Build 0)  -->
<svg version="1.1" id="Слой_1" xmlns="http://www.w3.org/2000/svg" xmlns:xlink="http://www.w3.org/1999/xlink" x="0px" y="0px"
	 viewBox="0 0 50 50" style="enable-background:new 0 0 50 50;" xml:space="preserve" fill="#F15A24">
<style type="text/css">
	.st0{fill:none;stroke:#df5f6d;stroke-width:2.0627;stroke-linecap:round;stroke-linejoin:round;stroke-miterlimit:10;}
</style>
<g>
	<path class="st0" d="M35.3,41.7H14.6c-2.5,0-4.6-2.1-4.6-4.6V21c0-2.5,2.1-4.6,4.6-4.6h20.7c2.5,0,4.6,2.1,4.6,4.6v16.1
		C40,39.6,37.9,41.7,35.3,41.7z"/>
	<path class="st0" d="M35.3,16.4C35,10.9,30.5,6.7,25,6.7s-9.9,4.3-10.4,9.7"/>
	<line class="st0" x1="25" y1="24.3" x2="25" y2="33.8"/>
</g>
</svg>
