<svg xmlns="http://www.w3.org/2000/svg" width="34.75" height="27.241" viewBox="0 0 34.75 27.241">
  <g id="Сгруппировать_1106" data-name="Сгруппировать 1106" transform="translate(-1845.965 -461.311)">
    <path id="Контур_454" data-name="Контур 454" d="M1880.714,461.311h-22.606V477.8h12.914v6.224l5.383-6.224h4.309Z" fill="#7d7d7d"/>
    <path id="Контур_455" data-name="Контур 455" d="M1856.019,479.862V465.837h-10.055v16.491h5.15l5.383,6.224v-6.224h12.914v-2.466Z" fill="#7d7d7d"/>
  </g>
</svg>
