<svg xmlns="http://www.w3.org/2000/svg" xmlns:xlink="http://www.w3.org/1999/xlink" width="119.837" height="119.091" viewBox="0 0 119.837 119.091">
  <defs>
    <linearGradient id="linear-gradient" x1="-0.519" y1="1.453" x2="1.388" y2="-0.33" gradientUnits="objectBoundingBox">
      <stop offset="0" stop-color="#d6428f"/>
      <stop offset="0.136" stop-color="#d94c83"/>
      <stop offset="0.377" stop-color="#e16965"/>
      <stop offset="0.693" stop-color="#ef9735"/>
      <stop offset="1" stop-color="#ffcb00"/>
    </linearGradient>
  </defs>
  <g id="Сгруппировать_1264" data-name="Сгруппировать 1264" transform="translate(-565 -569)">
    <rect id="Прямоугольник_220" data-name="Прямоугольник 220" width="119.837" height="119.091" transform="translate(565 569)" fill="url(#linear-gradient)"/>
    <g id="Сгруппировать_1211" data-name="Сгруппировать 1211" transform="translate(3.697 56.875)">
      <path id="Контур_466" data-name="Контур 466" d="M608.518,547.612a7.435,7.435,0,1,0,7.436,7.435,7.445,7.445,0,0,0-7.436-7.435Zm0,17.661a10.225,10.225,0,1,1,10.225-10.226,10.237,10.237,0,0,1-10.225,10.226Z" fill="#fff"/>
      <path id="Контур_467" data-name="Контур 467" d="M630.7,591.6a4.607,4.607,0,0,0-4.7,3.8l-.069.381H617.7l5.982-19.211h11.693L630.7,591.6Zm1.266,6.679a.988.988,0,0,1-1.158.8c-.8-.146-1.436-.165-1.936-.891a3.241,3.241,0,0,1-.123-2.291,1.906,1.906,0,0,1,1.777-1.513c.1,0,1.909.319,1.909.319a.2.2,0,0,1,.144.207l-.613,3.368ZM617.881,585.95l-1.876,5.971c-4.884,0-19.533,0-19.533,0a2.553,2.553,0,0,1-2.38-2.389V575.654c0-3.005,3.152-5.544,6.88-5.55h14.952c3.5,0,5.3,3.44,5.136,5.688l-1.927,6.151-2.753-2.753a1.395,1.395,0,0,0-1.972,1.973l2,2H601.26v-6.968a1.4,1.4,0,0,0-2.791,0v8.361a1.394,1.394,0,0,0,1.4,1.4Zm19.41-12.082H623.483a7.605,7.605,0,0,0-7.559-6.553H600.969c-5.238.006-9.666,3.824-9.666,8.339v13.878a5.224,5.224,0,0,0,5.1,5.025c.352.009.838-.01,1.423,0l.018,12.7h2.789l-.018-12.7s10.827,0,14.558,0l-.711,2.284a1.5,1.5,0,0,0,1.33,1.942h2.53v8.471h2.789v-8.471h4.947a4.577,4.577,0,0,0,3.464,2.9s1.243.2,1.468.2a3.784,3.784,0,0,0,3.722-3.11l.612-3.365a2.971,2.971,0,0,0-1.828-3.293l5.122-16.351a1.455,1.455,0,0,0-1.327-1.9Z" fill="#fff"/>
      <path id="Контур_468" data-name="Контур 468" d="M622.436,568.808a2.076,2.076,0,0,1-1.055-2.281l.825-4.007H621.15a1.395,1.395,0,1,1,0-2.789h1.54a2.4,2.4,0,0,1,2.341,2.9l-.439,2.133,4.237-4.318a2.4,2.4,0,0,1,1.7-.715h17.8a.3.3,0,0,0,.28-.311v-20.2a.3.3,0,0,0-.28-.311H615.291a.3.3,0,0,0-.279.311v4.24a1.395,1.395,0,1,1-2.789,0v-4.24a3.088,3.088,0,0,1,3.068-3.1h33.041a3.088,3.088,0,0,1,3.069,3.1v20.2a3.088,3.088,0,0,1-3.069,3.1H630.7l-5.8,5.91a2.06,2.06,0,0,1-2.465.378Z" fill="#fff"/>
      <path id="Контур_469" data-name="Контур 469" d="M635.61,552.328v1.8h-8.4v-8.405h6.6v-2.7H625.9a1.332,1.332,0,0,0-1.392,1.323v11.017a1.456,1.456,0,0,0,1.392,1.469h11.016a1.463,1.463,0,0,0,1.4-1.469v-3.034Z" fill="#fff"/>
      <path id="Контур_470" data-name="Контур 470" d="M632.868,551.763a1.392,1.392,0,0,1-1.1-.543l-2.207-2.859a1.395,1.395,0,0,1,2.208-1.705l1.251,1.622,4.027-3.914a1.395,1.395,0,1,1,1.944,2l-5.147,5a1.4,1.4,0,0,1-.973.4Z" fill="#fff"/>
    </g>
  </g>
</svg>
