<svg xmlns="http://www.w3.org/2000/svg" xmlns:xlink="http://www.w3.org/1999/xlink" width="119.837" height="119.092" viewBox="0 0 119.837 119.092">
  <defs>
    <linearGradient id="linear-gradient" x1="-0.768" y1="1.646" x2="1.731" y2="-0.612" gradientUnits="objectBoundingBox">
      <stop offset="0" stop-color="#d6428f"/>
      <stop offset="0.136" stop-color="#d94c83"/>
      <stop offset="0.377" stop-color="#e16965"/>
      <stop offset="0.693" stop-color="#ef9735"/>
      <stop offset="1" stop-color="#ffcb00"/>
    </linearGradient>
  </defs>
  <g id="Сгруппировать_1262" data-name="Сгруппировать 1262" transform="translate(-565 -429)">
    <g id="Сгруппировать_1138" data-name="Сгруппировать 1138" transform="translate(0.401 59.499)">
      <g id="Сгруппировать_1137" data-name="Сгруппировать 1137">
        <g id="Сгруппировать_1136" data-name="Сгруппировать 1136">
          <g id="Сгруппировать_1135" data-name="Сгруппировать 1135">
            <rect id="Прямоугольник_214" data-name="Прямоугольник 214" width="119.837" height="119.092" transform="translate(564.599 369.501)" fill="url(#linear-gradient)"/>
          </g>
        </g>
      </g>
    </g>
    <g id="Сгруппировать_1210" data-name="Сгруппировать 1210" transform="translate(-0.303 50.594)">
      <path id="Контур_458" data-name="Контур 458" d="M592.612,472.485h-.006a1.308,1.308,0,0,1-1.3-1.315l.019-3.891c-.045-3.593,7.814-6.618,14.415-8.519a15.983,15.983,0,0,1,11.226.327c5.029,1.731,13.454,5.206,13.367,9.032l-.015,2.88a1.31,1.31,0,0,1-1.309,1.3H629a1.309,1.309,0,0,1-1.3-1.316l.015-2.9c.02-.89-3.363-3.685-11.6-6.52a13.422,13.422,0,0,0-9.648-.287c-8.87,2.555-12.532,5.164-12.521,5.993l-.02,3.914a1.309,1.309,0,0,1-1.309,1.3Z" fill="#fff"/>
      <path id="Контур_459" data-name="Контур 459" d="M610.579,453.835c-4.645-.1-8.377-4.12-8.826-9.324a9.009,9.009,0,0,0,10.3-6.015,13.619,13.619,0,0,0,2.7,3.209,13.891,13.891,0,0,0,5.054,2.812c-.486,5.086-4.285,9.423-9.221,9.318Zm5.864-14.128a13.384,13.384,0,0,1-2.9-3.843c-.5-.91-.915-1.625-1.847-1.564a1.4,1.4,0,0,0-1.213.912c-.565,1.459-1.541,5.35-4.755,6.429-4.275,1.44-6.655-2.1-6.641,2.1.131,7.008,5.132,12.579,11.43,12.715,6.554.238,11.359-5.618,11.9-11.817.284-3.984-.816-.546-5.974-4.929Z" fill="#fff"/>
      <path id="Контур_460" data-name="Контур 460" d="M624.635,461.721a1.309,1.309,0,0,1-1.309-1.309v-15.43c0-7.936-5.656-14.261-12.607-14.392-5.7-.106-12.888,6.456-12.888,14.392v15.43a1.31,1.31,0,0,1-2.619,0v-15.43c0-9.38,8.434-17.032,15.507-17.01,8.4.027,15.226,7.63,15.226,17.01v15.43a1.309,1.309,0,0,1-1.31,1.309Z" fill="#fff"/>
      <path id="Контур_461" data-name="Контур 461" d="M631.906,444.991a2.433,2.433,0,0,1-1.2-.319,2.3,2.3,0,0,1-1.129-2.522l1.437-6.548c.024-.118-.121-.206-.247-.206h-2.41a1.309,1.309,0,1,1,0-2.618h2.41a2.817,2.817,0,0,1,2.8,3.386l-1.26,5.741,8.711-8.328a2.886,2.886,0,0,1,2.007-.8h12.822a1.257,1.257,0,0,0,1.309-1.194V408.219a1.257,1.257,0,0,0-1.309-1.194H619.19a1.257,1.257,0,0,0-1.309,1.194v17.106a1.309,1.309,0,0,1-2.619,0V408.219a3.876,3.876,0,0,1,3.928-3.813h36.658a3.876,3.876,0,0,1,3.928,3.813v23.365a3.876,3.876,0,0,1-3.928,3.812H643.026a.288.288,0,0,0-.2.073l-9.258,8.851a2.406,2.406,0,0,1-1.665.671Z" fill="#fff"/>
    </g>
  </g>
</svg>
