<svg xmlns="http://www.w3.org/2000/svg" xmlns:xlink="http://www.w3.org/1999/xlink" width="556" height="736" viewBox="0 0 556 736">
  <defs>
    <clipPath id="clip-path">
      <rect id="Прямоугольник_315" data-name="Прямоугольник 315" width="556" height="736" transform="translate(1364)" fill="#fff"/>
    </clipPath>
    <clipPath id="clip-path-2">
      <rect id="Прямоугольник_24" data-name="Прямоугольник 24" width="575.79" height="735.504" fill="none"/>
    </clipPath>
  </defs>
  <g id="Группа_масок_19" data-name="Группа масок 19" transform="translate(-1364)" clip-path="url(#clip-path)">
    <g id="Сгруппировать_8" data-name="Сгруппировать 8" transform="translate(4468.82 1261.78) rotate(180)">
      <g id="Сгруппировать_5" data-name="Сгруппировать 5" transform="translate(2528.82 526.276)">
        <rect id="Прямоугольник_23" data-name="Прямоугольник 23" width="575.79" height="735.504" fill="#f2f2f2"/>
      </g>
      <g id="Сгруппировать_7" data-name="Сгруппировать 7" transform="translate(2528.825 526.276)">
        <g id="Сгруппировать_6" data-name="Сгруппировать 6" clip-path="url(#clip-path-2)">
          <line id="Линия_1" data-name="Линия 1" x1="801.688" y1="736.305" transform="translate(551.103 -0.801)" fill="none" stroke="#c6c6c5" stroke-miterlimit="10" stroke-width="0.743"/>
          <line id="Линия_2" data-name="Линия 2" x1="801.688" y1="736.305" transform="translate(538.456 -0.801)" fill="none" stroke="#c6c6c5" stroke-miterlimit="10" stroke-width="0.743"/>
          <line id="Линия_3" data-name="Линия 3" x1="801.688" y1="736.305" transform="translate(563.708 -0.801)" fill="none" stroke="#c6c6c5" stroke-miterlimit="10" stroke-width="0.743"/>
          <line id="Линия_4" data-name="Линия 4" x1="801.688" y1="736.305" transform="translate(525.808 -0.801)" fill="none" stroke="#c6c6c5" stroke-miterlimit="10" stroke-width="0.743"/>
          <line id="Линия_5" data-name="Линия 5" x1="801.683" y1="736.305" transform="translate(513.166 -0.801)" fill="none" stroke="#c6c6c5" stroke-miterlimit="10" stroke-width="0.743"/>
          <line id="Линия_6" data-name="Линия 6" x1="801.683" y1="736.305" transform="translate(500.518 -0.801)" fill="none" stroke="#c6c6c5" stroke-miterlimit="10" stroke-width="0.743"/>
          <line id="Линия_7" data-name="Линия 7" x1="801.688" y1="736.305" transform="translate(487.87 -0.801)" fill="none" stroke="#c6c6c5" stroke-miterlimit="10" stroke-width="0.743"/>
          <line id="Линия_8" data-name="Линия 8" x1="801.688" y1="736.305" transform="translate(475.223 -0.801)" fill="none" stroke="#c6c6c5" stroke-miterlimit="10" stroke-width="0.743"/>
          <line id="Линия_9" data-name="Линия 9" x1="801.688" y1="736.305" transform="translate(462.575 -0.801)" fill="none" stroke="#c6c6c5" stroke-miterlimit="10" stroke-width="0.743"/>
          <line id="Линия_10" data-name="Линия 10" x1="801.688" y1="736.305" transform="translate(449.927 -0.801)" fill="none" stroke="#c6c6c5" stroke-miterlimit="10" stroke-width="0.743"/>
          <line id="Линия_11" data-name="Линия 11" x1="801.688" y1="736.305" transform="translate(437.28 -0.801)" fill="none" stroke="#c6c6c5" stroke-miterlimit="10" stroke-width="0.743"/>
          <line id="Линия_12" data-name="Линия 12" x1="801.688" y1="736.305" transform="translate(424.632 -0.801)" fill="none" stroke="#c6c6c5" stroke-miterlimit="10" stroke-width="0.743"/>
          <line id="Линия_13" data-name="Линия 13" x1="801.683" y1="736.305" transform="translate(411.99 -0.801)" fill="none" stroke="#c6c6c5" stroke-miterlimit="10" stroke-width="0.743"/>
          <line id="Линия_14" data-name="Линия 14" x1="801.688" y1="736.305" transform="translate(399.342 -0.801)" fill="none" stroke="#c6c6c5" stroke-miterlimit="10" stroke-width="0.743"/>
          <line id="Линия_15" data-name="Линия 15" x1="801.688" y1="736.305" transform="translate(386.694 -0.801)" fill="none" stroke="#c6c6c5" stroke-miterlimit="10" stroke-width="0.743"/>
          <line id="Линия_16" data-name="Линия 16" x1="801.688" y1="736.305" transform="translate(374.047 -0.801)" fill="none" stroke="#c6c6c5" stroke-miterlimit="10" stroke-width="0.743"/>
          <line id="Линия_17" data-name="Линия 17" x1="801.688" y1="736.305" transform="translate(361.399 -0.801)" fill="none" stroke="#c6c6c5" stroke-miterlimit="10" stroke-width="0.743"/>
          <line id="Линия_18" data-name="Линия 18" x1="801.688" y1="736.305" transform="translate(348.752 -0.801)" fill="none" stroke="#c6c6c5" stroke-miterlimit="10" stroke-width="0.743"/>
          <line id="Линия_19" data-name="Линия 19" x1="801.688" y1="736.305" transform="translate(336.104 -0.801)" fill="none" stroke="#c6c6c5" stroke-miterlimit="10" stroke-width="0.743"/>
          <line id="Линия_20" data-name="Линия 20" x1="801.688" y1="736.305" transform="translate(323.456 -0.801)" fill="none" stroke="#c6c6c5" stroke-miterlimit="10" stroke-width="0.743"/>
          <line id="Линия_21" data-name="Линия 21" x1="801.683" y1="736.305" transform="translate(310.813 -0.801)" fill="none" stroke="#c6c6c5" stroke-miterlimit="10" stroke-width="0.743"/>
          <line id="Линия_22" data-name="Линия 22" x1="801.688" y1="736.305" transform="translate(298.166 -0.801)" fill="none" stroke="#c6c6c5" stroke-miterlimit="10" stroke-width="0.743"/>
          <line id="Линия_23" data-name="Линия 23" x1="801.688" y1="736.305" transform="translate(285.519 -0.801)" fill="none" stroke="#c6c6c5" stroke-miterlimit="10" stroke-width="0.743"/>
          <line id="Линия_24" data-name="Линия 24" x1="801.688" y1="736.305" transform="translate(272.871 -0.801)" fill="none" stroke="#c6c6c5" stroke-miterlimit="10" stroke-width="0.743"/>
          <line id="Линия_25" data-name="Линия 25" x1="801.688" y1="736.305" transform="translate(260.224 -0.801)" fill="none" stroke="#c6c6c5" stroke-miterlimit="10" stroke-width="0.743"/>
          <line id="Линия_26" data-name="Линия 26" x1="801.688" y1="736.305" transform="translate(247.576 -0.801)" fill="none" stroke="#c6c6c5" stroke-miterlimit="10" stroke-width="0.743"/>
          <line id="Линия_27" data-name="Линия 27" x1="801.688" y1="736.305" transform="translate(234.928 -0.801)" fill="none" stroke="#c6c6c5" stroke-miterlimit="10" stroke-width="0.743"/>
          <line id="Линия_28" data-name="Линия 28" x1="801.683" y1="736.305" transform="translate(222.286 -0.801)" fill="none" stroke="#c6c6c5" stroke-miterlimit="10" stroke-width="0.743"/>
          <line id="Линия_29" data-name="Линия 29" x1="801.683" y1="736.305" transform="translate(209.638 -0.801)" fill="none" stroke="#c6c6c5" stroke-miterlimit="10" stroke-width="0.743"/>
          <line id="Линия_30" data-name="Линия 30" x1="801.688" y1="736.305" transform="translate(196.99 -0.801)" fill="none" stroke="#c6c6c5" stroke-miterlimit="10" stroke-width="0.743"/>
          <line id="Линия_31" data-name="Линия 31" x1="801.688" y1="736.305" transform="translate(184.342 -0.801)" fill="none" stroke="#c6c6c5" stroke-miterlimit="10" stroke-width="0.743"/>
          <line id="Линия_32" data-name="Линия 32" x1="801.688" y1="736.305" transform="translate(171.695 -0.801)" fill="none" stroke="#c6c6c5" stroke-miterlimit="10" stroke-width="0.743"/>
          <line id="Линия_33" data-name="Линия 33" x1="801.688" y1="736.305" transform="translate(159.047 -0.801)" fill="none" stroke="#c6c6c5" stroke-miterlimit="10" stroke-width="0.743"/>
          <line id="Линия_34" data-name="Линия 34" x1="801.688" y1="736.305" transform="translate(146.4 -0.801)" fill="none" stroke="#c6c6c5" stroke-miterlimit="10" stroke-width="0.743"/>
          <line id="Линия_35" data-name="Линия 35" x1="801.688" y1="736.305" transform="translate(133.752 -0.801)" fill="none" stroke="#c6c6c5" stroke-miterlimit="10" stroke-width="0.743"/>
          <line id="Линия_36" data-name="Линия 36" x1="801.683" y1="736.305" transform="translate(121.11 -0.801)" fill="none" stroke="#c6c6c5" stroke-miterlimit="10" stroke-width="0.743"/>
          <line id="Линия_37" data-name="Линия 37" x1="801.688" y1="736.305" transform="translate(108.462 -0.801)" fill="none" stroke="#c6c6c5" stroke-miterlimit="10" stroke-width="0.743"/>
          <line id="Линия_38" data-name="Линия 38" x1="801.688" y1="736.305" transform="translate(95.815 -0.801)" fill="none" stroke="#c6c6c5" stroke-miterlimit="10" stroke-width="0.743"/>
          <line id="Линия_39" data-name="Линия 39" x1="801.688" y1="736.305" transform="translate(83.166 -0.801)" fill="none" stroke="#c6c6c5" stroke-miterlimit="10" stroke-width="0.743"/>
          <line id="Линия_40" data-name="Линия 40" x1="801.688" y1="736.305" transform="translate(70.519 -0.801)" fill="none" stroke="#c6c6c5" stroke-miterlimit="10" stroke-width="0.743"/>
          <line id="Линия_41" data-name="Линия 41" x1="801.688" y1="736.305" transform="translate(57.871 -0.801)" fill="none" stroke="#c6c6c5" stroke-miterlimit="10" stroke-width="0.743"/>
          <line id="Линия_42" data-name="Линия 42" x1="801.688" y1="736.305" transform="translate(45.224 -0.801)" fill="none" stroke="#c6c6c5" stroke-miterlimit="10" stroke-width="0.743"/>
          <line id="Линия_43" data-name="Линия 43" x1="801.683" y1="736.305" transform="translate(32.581 -0.801)" fill="none" stroke="#c6c6c5" stroke-miterlimit="10" stroke-width="0.743"/>
          <line id="Линия_44" data-name="Линия 44" x1="801.683" y1="736.305" transform="translate(19.934 -0.801)" fill="none" stroke="#c6c6c5" stroke-miterlimit="10" stroke-width="0.743"/>
          <line id="Линия_45" data-name="Линия 45" x1="801.688" y1="736.305" transform="translate(7.286 -0.801)" fill="none" stroke="#c6c6c5" stroke-miterlimit="10" stroke-width="0.743"/>
          <line id="Линия_46" data-name="Линия 46" x1="801.688" y1="736.305" transform="translate(-5.361 -0.801)" fill="none" stroke="#c6c6c5" stroke-miterlimit="10" stroke-width="0.743"/>
          <line id="Линия_47" data-name="Линия 47" x1="801.688" y1="736.305" transform="translate(-18.009 -0.801)" fill="none" stroke="#c6c6c5" stroke-miterlimit="10" stroke-width="0.743"/>
          <line id="Линия_48" data-name="Линия 48" x1="801.688" y1="736.305" transform="translate(-30.657 -0.801)" fill="none" stroke="#c6c6c5" stroke-miterlimit="10" stroke-width="0.743"/>
          <line id="Линия_49" data-name="Линия 49" x1="801.688" y1="736.305" transform="translate(-43.304 -0.801)" fill="none" stroke="#c6c6c5" stroke-miterlimit="10" stroke-width="0.743"/>
          <line id="Линия_50" data-name="Линия 50" x1="801.688" y1="736.305" transform="translate(-55.952 -0.801)" fill="none" stroke="#c6c6c5" stroke-miterlimit="10" stroke-width="0.743"/>
          <line id="Линия_51" data-name="Линия 51" x1="801.683" y1="736.305" transform="translate(-68.594 -0.801)" fill="none" stroke="#c6c6c5" stroke-miterlimit="10" stroke-width="0.743"/>
          <line id="Линия_52" data-name="Линия 52" x1="801.688" y1="736.305" transform="translate(-81.242 -0.801)" fill="none" stroke="#c6c6c5" stroke-miterlimit="10" stroke-width="0.743"/>
          <line id="Линия_53" data-name="Линия 53" x1="801.688" y1="736.305" transform="translate(-93.89 -0.801)" fill="none" stroke="#c6c6c5" stroke-miterlimit="10" stroke-width="0.743"/>
          <line id="Линия_54" data-name="Линия 54" x1="801.688" y1="736.305" transform="translate(-106.537 -0.801)" fill="none" stroke="#c6c6c5" stroke-miterlimit="10" stroke-width="0.743"/>
          <line id="Линия_55" data-name="Линия 55" x1="801.688" y1="736.305" transform="translate(-119.185 -0.801)" fill="none" stroke="#c6c6c5" stroke-miterlimit="10" stroke-width="0.743"/>
          <line id="Линия_56" data-name="Линия 56" x1="801.688" y1="736.305" transform="translate(-131.833 -0.801)" fill="none" stroke="#c6c6c5" stroke-miterlimit="10" stroke-width="0.743"/>
          <line id="Линия_57" data-name="Линия 57" x1="801.688" y1="736.305" transform="translate(-144.48 -0.801)" fill="none" stroke="#c6c6c5" stroke-miterlimit="10" stroke-width="0.743"/>
          <line id="Линия_58" data-name="Линия 58" x1="801.688" y1="736.305" transform="translate(-157.128 -0.801)" fill="none" stroke="#c6c6c5" stroke-miterlimit="10" stroke-width="0.743"/>
          <line id="Линия_59" data-name="Линия 59" x1="801.683" y1="736.305" transform="translate(-169.77 -0.801)" fill="none" stroke="#c6c6c5" stroke-miterlimit="10" stroke-width="0.743"/>
          <line id="Линия_60" data-name="Линия 60" x1="801.688" y1="736.305" transform="translate(-182.418 -0.801)" fill="none" stroke="#c6c6c5" stroke-miterlimit="10" stroke-width="0.743"/>
          <line id="Линия_61" data-name="Линия 61" x1="801.688" y1="736.305" transform="translate(-195.066 -0.801)" fill="none" stroke="#c6c6c5" stroke-miterlimit="10" stroke-width="0.743"/>
          <line id="Линия_62" data-name="Линия 62" x1="801.688" y1="736.305" transform="translate(-207.714 -0.801)" fill="none" stroke="#c6c6c5" stroke-miterlimit="10" stroke-width="0.743"/>
          <line id="Линия_63" data-name="Линия 63" x1="801.688" y1="736.305" transform="translate(-220.889 -0.801)" fill="none" stroke="#c6c6c5" stroke-miterlimit="10" stroke-width="0.743"/>
          <line id="Линия_64" data-name="Линия 64" x1="801.688" y1="736.305" transform="translate(-233.536 -0.801)" fill="none" stroke="#c6c6c5" stroke-miterlimit="10" stroke-width="0.743"/>
          <line id="Линия_65" data-name="Линия 65" x1="801.683" y1="736.305" transform="translate(-246.179 -0.801)" fill="none" stroke="#c6c6c5" stroke-miterlimit="10" stroke-width="0.743"/>
          <line id="Линия_66" data-name="Линия 66" x1="801.688" y1="736.305" transform="translate(-258.827 -0.801)" fill="none" stroke="#c6c6c5" stroke-miterlimit="10" stroke-width="0.743"/>
          <line id="Линия_67" data-name="Линия 67" x1="801.688" y1="736.305" transform="translate(-271.474 -0.801)" fill="none" stroke="#c6c6c5" stroke-miterlimit="10" stroke-width="0.743"/>
          <line id="Линия_68" data-name="Линия 68" x1="801.688" y1="736.305" transform="translate(-284.121 -0.801)" fill="none" stroke="#c6c6c5" stroke-miterlimit="10" stroke-width="0.743"/>
          <line id="Линия_69" data-name="Линия 69" x1="801.688" y1="736.305" transform="translate(-296.769 -0.801)" fill="none" stroke="#c6c6c5" stroke-miterlimit="10" stroke-width="0.743"/>
          <line id="Линия_70" data-name="Линия 70" x1="801.688" y1="736.305" transform="translate(-309.417 -0.801)" fill="none" stroke="#c6c6c5" stroke-miterlimit="10" stroke-width="0.743"/>
          <line id="Линия_71" data-name="Линия 71" x1="801.688" y1="736.305" transform="translate(-322.064 -0.801)" fill="none" stroke="#c6c6c5" stroke-miterlimit="10" stroke-width="0.743"/>
          <line id="Линия_72" data-name="Линия 72" x1="801.683" y1="736.305" transform="translate(-334.707 -0.801)" fill="none" stroke="#c6c6c5" stroke-miterlimit="10" stroke-width="0.743"/>
          <line id="Линия_73" data-name="Линия 73" x1="801.683" y1="736.305" transform="translate(-347.354 -0.801)" fill="none" stroke="#c6c6c5" stroke-miterlimit="10" stroke-width="0.743"/>
          <line id="Линия_74" data-name="Линия 74" x1="801.688" y1="736.305" transform="translate(-360.002 -0.801)" fill="none" stroke="#c6c6c5" stroke-miterlimit="10" stroke-width="0.743"/>
          <line id="Линия_75" data-name="Линия 75" x1="801.688" y1="736.305" transform="translate(-372.65 -0.801)" fill="none" stroke="#c6c6c5" stroke-miterlimit="10" stroke-width="0.743"/>
          <line id="Линия_76" data-name="Линия 76" x1="801.688" y1="736.305" transform="translate(-385.297 -0.801)" fill="none" stroke="#c6c6c5" stroke-miterlimit="10" stroke-width="0.743"/>
          <line id="Линия_77" data-name="Линия 77" x1="801.688" y1="736.305" transform="translate(-397.945 -0.801)" fill="none" stroke="#c6c6c5" stroke-miterlimit="10" stroke-width="0.743"/>
          <line id="Линия_78" data-name="Линия 78" x1="801.688" y1="736.305" transform="translate(-410.593 -0.801)" fill="none" stroke="#c6c6c5" stroke-miterlimit="10" stroke-width="0.743"/>
          <line id="Линия_79" data-name="Линия 79" x1="801.688" y1="736.305" transform="translate(-423.24 -0.801)" fill="none" stroke="#c6c6c5" stroke-miterlimit="10" stroke-width="0.743"/>
          <line id="Линия_80" data-name="Линия 80" x1="801.683" y1="736.305" transform="translate(-435.883 -0.801)" fill="none" stroke="#c6c6c5" stroke-miterlimit="10" stroke-width="0.743"/>
          <line id="Линия_81" data-name="Линия 81" x1="801.688" y1="736.305" transform="translate(-448.531 -0.801)" fill="none" stroke="#c6c6c5" stroke-miterlimit="10" stroke-width="0.743"/>
          <line id="Линия_82" data-name="Линия 82" x1="801.688" y1="736.305" transform="translate(-461.178 -0.801)" fill="none" stroke="#c6c6c5" stroke-miterlimit="10" stroke-width="0.743"/>
          <line id="Линия_83" data-name="Линия 83" x1="801.688" y1="736.305" transform="translate(-473.826 -0.801)" fill="none" stroke="#c6c6c5" stroke-miterlimit="10" stroke-width="0.743"/>
          <line id="Линия_84" data-name="Линия 84" x1="801.688" y1="736.305" transform="translate(-486.474 -0.801)" fill="none" stroke="#c6c6c5" stroke-miterlimit="10" stroke-width="0.743"/>
          <line id="Линия_85" data-name="Линия 85" x1="801.688" y1="736.305" transform="translate(-499.121 -0.801)" fill="none" stroke="#c6c6c5" stroke-miterlimit="10" stroke-width="0.743"/>
          <line id="Линия_86" data-name="Линия 86" x1="801.688" y1="736.305" transform="translate(-511.769 -0.801)" fill="none" stroke="#c6c6c5" stroke-miterlimit="10" stroke-width="0.743"/>
          <line id="Линия_87" data-name="Линия 87" x1="801.683" y1="736.305" transform="translate(-524.411 -0.801)" fill="none" stroke="#c6c6c5" stroke-miterlimit="10" stroke-width="0.743"/>
          <line id="Линия_88" data-name="Линия 88" x1="801.683" y1="736.305" transform="translate(-537.059 -0.801)" fill="none" stroke="#c6c6c5" stroke-miterlimit="10" stroke-width="0.743"/>
          <line id="Линия_89" data-name="Линия 89" x1="801.688" y1="736.305" transform="translate(-549.706 -0.801)" fill="none" stroke="#c6c6c5" stroke-miterlimit="10" stroke-width="0.743"/>
          <line id="Линия_90" data-name="Линия 90" x1="801.688" y1="736.305" transform="translate(-562.354 -0.801)" fill="none" stroke="#c6c6c5" stroke-miterlimit="10" stroke-width="0.743"/>
          <line id="Линия_91" data-name="Линия 91" x1="801.688" y1="736.305" transform="translate(-575.001 -0.801)" fill="none" stroke="#c6c6c5" stroke-miterlimit="10" stroke-width="0.743"/>
          <line id="Линия_92" data-name="Линия 92" x1="801.688" y1="736.305" transform="translate(-587.649 -0.801)" fill="none" stroke="#c6c6c5" stroke-miterlimit="10" stroke-width="0.743"/>
          <line id="Линия_93" data-name="Линия 93" x1="801.688" y1="736.305" transform="translate(-600.297 -0.801)" fill="none" stroke="#c6c6c5" stroke-miterlimit="10" stroke-width="0.743"/>
          <line id="Линия_94" data-name="Линия 94" x1="801.688" y1="736.305" transform="translate(-612.945 -0.801)" fill="none" stroke="#c6c6c5" stroke-miterlimit="10" stroke-width="0.743"/>
          <line id="Линия_95" data-name="Линия 95" x1="801.683" y1="736.305" transform="translate(-625.587 -0.801)" fill="none" stroke="#c6c6c5" stroke-miterlimit="10" stroke-width="0.743"/>
          <line id="Линия_96" data-name="Линия 96" x1="801.688" y1="736.305" transform="translate(-638.235 -0.801)" fill="none" stroke="#c6c6c5" stroke-miterlimit="10" stroke-width="0.743"/>
          <line id="Линия_97" data-name="Линия 97" x1="801.688" y1="736.305" transform="translate(-650.882 -0.801)" fill="none" stroke="#c6c6c5" stroke-miterlimit="10" stroke-width="0.743"/>
          <line id="Линия_98" data-name="Линия 98" x1="801.688" y1="736.305" transform="translate(-663.53 -0.801)" fill="none" stroke="#c6c6c5" stroke-miterlimit="10" stroke-width="0.743"/>
          <line id="Линия_99" data-name="Линия 99" x1="801.688" y1="736.305" transform="translate(-676.178 -0.801)" fill="none" stroke="#c6c6c5" stroke-miterlimit="10" stroke-width="0.743"/>
          <line id="Линия_100" data-name="Линия 100" x1="801.688" y1="736.305" transform="translate(-688.825 -0.801)" fill="none" stroke="#c6c6c5" stroke-miterlimit="10" stroke-width="0.743"/>
          <line id="Линия_101" data-name="Линия 101" x1="801.688" y1="736.305" transform="translate(-701.473 -0.801)" fill="none" stroke="#c6c6c5" stroke-miterlimit="10" stroke-width="0.743"/>
          <line id="Линия_102" data-name="Линия 102" x1="801.688" y1="736.305" transform="translate(-714.12 -0.801)" fill="none" stroke="#c6c6c5" stroke-miterlimit="10" stroke-width="0.743"/>
          <line id="Линия_103" data-name="Линия 103" x1="801.683" y1="736.305" transform="translate(-726.763 -0.801)" fill="none" stroke="#c6c6c5" stroke-miterlimit="10" stroke-width="0.743"/>
          <line id="Линия_104" data-name="Линия 104" x1="801.688" y1="736.305" transform="translate(-739.411 -0.801)" fill="none" stroke="#c6c6c5" stroke-miterlimit="10" stroke-width="0.743"/>
          <line id="Линия_105" data-name="Линия 105" x1="801.688" y1="736.305" transform="translate(-752.058 -0.801)" fill="none" stroke="#c6c6c5" stroke-miterlimit="10" stroke-width="0.743"/>
          <line id="Линия_106" data-name="Линия 106" x1="801.688" y1="736.305" transform="translate(-764.706 -0.801)" fill="none" stroke="#c6c6c5" stroke-miterlimit="10" stroke-width="0.743"/>
          <line id="Линия_107" data-name="Линия 107" x1="801.688" y1="736.305" transform="translate(-777.354 -0.801)" fill="none" stroke="#c6c6c5" stroke-miterlimit="10" stroke-width="0.743"/>
          <line id="Линия_108" data-name="Линия 108" x1="801.688" y1="736.305" transform="translate(-790.001 -0.801)" fill="none" stroke="#c6c6c5" stroke-miterlimit="10" stroke-width="0.743"/>
          <line id="Линия_109" data-name="Линия 109" x1="801.688" y1="736.305" transform="translate(-802.648 -0.801)" fill="none" stroke="#c6c6c5" stroke-miterlimit="10" stroke-width="0.743"/>
        </g>
      </g>
    </g>
  </g>
</svg>
